…
Siguiendo con el ejemplo del modelo lineal:

``` r
fit <- global_economy %>%
  model(trend_model = TSLM(GDP ~ trend()))
```

Con esto se ajustó un modelo lineal y el objeto resultante es un `mable`
(model table).

``` r
fit
```

    ## # A mable: 263 x 2
    ## # Key:     Country [263]
    ##    Country             trend_model
    ##    <fct>               <model>    
    ##  1 Afghanistan         <TSLM>     
    ##  2 Albania             <TSLM>     
    ##  3 Algeria             <TSLM>     
    ##  4 American Samoa      <TSLM>     
    ##  5 Andorra             <TSLM>     
    ##  6 Angola              <TSLM>     
    ##  7 Antigua and Barbuda <TSLM>     
    ##  8 Arab World          <TSLM>     
    ##  9 Argentina           <TSLM>     
    ## 10 Armenia             <TSLM>     
    ## # ... with 253 more rows
…
### 6\. Producir pronósticos

Cuando ya evaluamos que el modelo ajustado se encuentra dentro de los
parámetros deseados, podemos proceder a realizar los pronósticos. En
.**R**, podemos usar el comando `forecast()`, en el cual debemos
especificar el número de periodos a pronosticar. Por ejemplo, par
pronosticar los siguientes 12 meses, escribiríamos `h = 12`. También
podemos usar lenguaje ordinario (en inglés), `h = "1 year"`.

``` r
fit %>% forecast(h = "3 years")
```

    ## # A fable: 789 x 5 [1Y]
    ## # Key:     Country, .model [263]
    ##    Country        .model       Year           GDP .distribution      
    ##    <fct>          <chr>       <dbl>         <dbl> <dist>             
    ##  1 Afghanistan    trend_model  2018  16205101654. N(1.6e+10, 1.3e+19)
    ##  2 Afghanistan    trend_model  2019  16511878141. N(1.7e+10, 1.3e+19)
    ##  3 Afghanistan    trend_model  2020  16818654627. N(1.7e+10, 1.3e+19)
    ##  4 Albania        trend_model  2018  13733734164. N(1.4e+10, 3.9e+18)
    ##  5 Albania        trend_model  2019  14166852711. N(1.4e+10, 3.9e+18)
    ##  6 Albania        trend_model  2020  14599971258. N(1.5e+10, 3.9e+18)
    ##  7 Algeria        trend_model  2018 157895153441. N(1.6e+11, 9.4e+20)
    ##  8 Algeria        trend_model  2019 161100952126. N(1.6e+11, 9.4e+20)
    ##  9 Algeria        trend_model  2020 164306750811. N(1.6e+11, 9.4e+20)
    ## 10 American Samoa trend_model  2018    682475000  N(6.8e+08, 1.7e+15)
    ## # ... with 779 more rows
…
\[
e_{t}=y_{t}-\hat{y}_{t}
\]

En **R**, podemos obtener los valores ajustados y los residuales con la
función `augment()`. Recordando, habíamos ajustado tres modelos
distintos, que guardamos en la variable `beer_fit`.

``` r
augment(beer_fit)
```

    ## # A tsibble: 180 x 5 [1Q]
    ## # Key:       .model [3]
    ##    .model Quarter  Beer .fitted .resid
    ##    <chr>    <qtr> <dbl>   <dbl>  <dbl>
    ##  1 Mean   1992 Q1   443    436.   6.55
    ##  2 Mean   1992 Q2   410    436. -26.4 
    ##  3 Mean   1992 Q3   420    436. -16.4 
    ##  4 Mean   1992 Q4   532    436.  95.6 
    ##  5 Mean   1993 Q1   433    436.  -3.45
    ##  6 Mean   1993 Q2   421    436. -15.4 
    ##  7 Mean   1993 Q3   410    436. -26.4 
    ##  8 Mean   1993 Q4   512    436.  75.6 
    ##  9 Mean   1994 Q1   449    436.  12.6 
    ## 10 Mean   1994 Q2   381    436. -55.4 
    ## # ... with 170 more rows
…
Si realizamos esto varias veces, obtendremos muchos escenarios futuros
posibles. Para ver algunos de ellos, utilizamos `generate`.

![Dr. Strange simulando mediante bootstrap 14,000,605 escenarios
posibles](dr_strange.jpeg)

``` r
fit <- google_2015 %>%
  model(NAIVE(Close))
sim <- fit %>% generate(h = 30, times = 5, bootstrap = TRUE)
sim
```

    ## # A tsibble: 150 x 5 [1]
    ## # Key:       Symbol, .model, .rep [5]
    ##    Symbol .model        .rep   day  .sim
    ##    <chr>  <chr>        <int> <dbl> <dbl>
    ##  1 GOOG   NAIVE(Close)     1   505  758.
    ##  2 GOOG   NAIVE(Close)     1   506  758.
    ##  3 GOOG   NAIVE(Close)     1   507  763.
    ##  4 GOOG   NAIVE(Close)     1   508  755.
    ##  5 GOOG   NAIVE(Close)     1   509  758.
    ##  6 GOOG   NAIVE(Close)     1   510  768.
    ##  7 GOOG   NAIVE(Close)     1   511  759.
    ##  8 GOOG   NAIVE(Close)     1   512  749.
    ##  9 GOOG   NAIVE(Close)     1   513  735.
    ## 10 GOOG   NAIVE(Close)     1   514  746.
    ## # ... with 140 more rows
…
Con esto, podemos obtener intervalos de predicción, al calcular los
percentiles de los escenarios futuros. El resultado se llama **intervalo
de predicción bootstrapped**. Esto se puede lograr fácilmente con
`forecast`.

``` r
fc <- fit %>% forecast(h = 30, bootstrap = TRUE)
fc
```

    ## # A fable: 30 x 5 [1]
    ## # Key:     Symbol, .model [1]
    ##    Symbol .model         day Close .distribution  
    ##    <chr>  <chr>        <dbl> <dbl> <dist>         
    ##  1 GOOG   NAIVE(Close)   505  759. sim(=dbl[5000])
    ##  2 GOOG   NAIVE(Close)   506  759. sim(=dbl[5000])
    ##  3 GOOG   NAIVE(Close)   507  759. sim(=dbl[5000])
    ##  4 GOOG   NAIVE(Close)   508  759. sim(=dbl[5000])
    ##  5 GOOG   NAIVE(Close)   509  759. sim(=dbl[5000])
    ##  6 GOOG   NAIVE(Close)   510  759. sim(=dbl[5000])
    ##  7 GOOG   NAIVE(Close)   511  759. sim(=dbl[5000])
    ##  8 GOOG   NAIVE(Close)   512  759. sim(=dbl[5000])
    ##  9 GOOG   NAIVE(Close)   513  759. sim(=dbl[5000])
    ## 10 GOOG   NAIVE(Close)   514  759. sim(=dbl[5000])
    ## # ... with 20 more rows
…
En alguna literatura o paqueterías pueden encontrar que al conjunto de
datos de entrenamiento se les conozca como “*in-sample data*” y al
conjunto de prueba “*out-of-sample data*”.

### Funciones para segmentar las series de tiempo

Hemos visto que podemos utilizar la función `filter` para filtrar una
base de datos o una serie de tiempo.

``` r
aus_production
```

    ## # A tsibble: 218 x 7 [1Q]
    ##    Quarter  Beer Tobacco Bricks Cement Electricity   Gas
    ##      <qtr> <dbl>   <dbl>  <dbl>  <dbl>       <dbl> <dbl>
    ##  1 1956 Q1   284    5225    189    465        3923     5
    ##  2 1956 Q2   213    5178    204    532        4436     6
    ##  3 1956 Q3   227    5297    208    561        4806     7
    ##  4 1956 Q4   308    5681    197    570        4418     6
    ##  5 1957 Q1   262    5577    187    529        4339     5
    ##  6 1957 Q2   228    5651    214    604        4811     7
    ##  7 1957 Q3   236    5317    227    603        5259     7
    ##  8 1957 Q4   320    6152    222    582        4735     6
    ##  9 1958 Q1   272    5758    199    554        4608     5
    ## 10 1958 Q2   233    5641    229    620        5196     7
    ## # ... with 208 more rows

Por ejemplo, tomando la producción en Australia, podemos filtrar para
tener los datos a partir de 1995:

``` r
aus_production %>% filter(year(Quarter) >= 1995)
```

    ## # A tsibble: 62 x 7 [1Q]
    ##    Quarter  Beer Tobacco Bricks Cement Electricity   Gas
    ##      <qtr> <dbl>   <dbl>  <dbl>  <dbl>       <dbl> <dbl>
    ##  1 1995 Q1   426    4714    430   1626       41768   131
    ##  2 1995 Q2   408    3939    457   1703       43686   167
    ##  3 1995 Q3   416    6137    417   1733       46022   181
    ##  4 1995 Q4   520    4739    370   1545       42800   145
    ##  5 1996 Q1   409    4275    310   1526       43661   133
    ##  6 1996 Q2   398    5239    358   1593       44707   162
    ##  7 1996 Q3   398    6293    379   1706       46326   184
    ##  8 1996 Q4   507    5575    369   1699       43346   146
    ##  9 1997 Q1   432    4802    330   1511       43938   135
    ## 10 1997 Q2   398    5523    390   1785       45828   171
    ## # ... with 52 more rows

o para obtener los datos de una cierta estación:

``` r
aus_production %>% filter(quarter(Quarter) == 1)
```

    ## # A tsibble: 55 x 7 [1Q]
    ##    Quarter  Beer Tobacco Bricks Cement Electricity   Gas
    ##      <qtr> <dbl>   <dbl>  <dbl>  <dbl>       <dbl> <dbl>
    ##  1 1956 Q1   284    5225    189    465        3923     5
    ##  2 1957 Q1   262    5577    187    529        4339     5
    ##  3 1958 Q1   272    5758    199    554        4608     5
    ##  4 1959 Q1   261    5478    208    573        4883     5
    ##  5 1960 Q1   286    5980    242    621        5387     6
    ##  6 1961 Q1   295    6022    241    688        5709     6
    ##  7 1962 Q1   279    6072    229    637        6098     6
    ##  8 1963 Q1   294    6051    231    674        6707     6
    ##  9 1964 Q1   313    5890    293    797        7469     6
    ## 10 1965 Q1   331    6201    309    902        8170     6
    ## # ... with 45 more rows
…
Esto filtra los últimos 20 datos (5 años).

Podemos usar `slice` para datos agrupados:

``` r
aus_retail %>%
  group_by(State, Industry) %>%
  slice(1:12)
```

    ## # A tsibble: 1,824 x 5 [1M]
    ## # Key:       State, Industry [152]
    ## # Groups:    State, Industry [152]
    ##    State               Industry                   `Series ID`     Month Turnover
    ##    <chr>               <chr>                      <chr>           <mth>    <dbl>
    ##  1 Australian Capital~ Cafes, restaurants and ca~ A3349849A   1982 abr.      4.4
    ##  2 Australian Capital~ Cafes, restaurants and ca~ A3349849A   1982 may.      3.4
    ##  3 Australian Capital~ Cafes, restaurants and ca~ A3349849A   1982 jun.      3.6
    ##  4 Australian Capital~ Cafes, restaurants and ca~ A3349849A   1982 jul.      4  
    ##  5 Australian Capital~ Cafes, restaurants and ca~ A3349849A   1982 ago.      3.6
    ##  6 Australian Capital~ Cafes, restaurants and ca~ A3349849A   1982 sep.      4.2
    ##  7 Australian Capital~ Cafes, restaurants and ca~ A3349849A   1982 oct.      4.8
    ##  8 Australian Capital~ Cafes, restaurants and ca~ A3349849A   1982 nov.      5.4
    ##  9 Australian Capital~ Cafes, restaurants and ca~ A3349849A   1982 dic.      6.9
    ## 10 Australian Capital~ Cafes, restaurants and ca~ A3349849A   1983 ene.      3.8
    ## # ... with 1,814 more rows
…
