…
# Ajuste del modelo
aus_pop_model <- aus_pop_train %>% 
  model(RW(Population ~ drift()))

# Obtener residuales y valores ajustados
aus_pop_aug <- aus_pop_model %>% augment()

aus_pop_aug
```

    ## # A tsibble: 46 x 6 [1Y]
    ## # Key:       Country, .model [1]
    ##    Country   .model                    Year Population   .fitted  .resid
    ##    <fct>     <chr>                    <dbl>      <dbl>     <dbl>   <dbl>
    ##  1 Australia RW(Population ~ drift())  1960   10276477       NA      NA 
    ##  2 Australia RW(Population ~ drift())  1961   10483000 10501329. -18329.
    ##  3 Australia RW(Population ~ drift())  1962   10742000 10707852.  34148.
    ##  4 Australia RW(Population ~ drift())  1963   10950000 10966852. -16852.
    ##  5 Australia RW(Population ~ drift())  1964   11167000 11174852.  -7852.
    ##  6 Australia RW(Population ~ drift())  1965   11388000 11391852.  -3852.
    ##  7 Australia RW(Population ~ drift())  1966   11651000 11612852.  38148.
    ##  8 Australia RW(Population ~ drift())  1967   11799000 11875852. -76852.
    ##  9 Australia RW(Population ~ drift())  1968   12009000 12023852. -14852.
    ## 10 Australia RW(Population ~ drift())  1969   12263000 12233852.  29148.
    ## # ... with 36 more rows
…
# Ajuste del modelo
bricks_model <- bricks_train %>% 
  model(seasonal_naive = SNAIVE(Bricks))

# Obtener residuales y valores ajustados
bricks_aug <- bricks_model %>% augment()

bricks_aug
```

    ## # A tsibble: 158 x 5 [1Q]
    ## # Key:       .model [1]
    ##    .model         Quarter Bricks .fitted .resid
    ##    <chr>            <qtr>  <dbl>   <dbl>  <dbl>
    ##  1 seasonal_naive 1956 Q1    189      NA     NA
    ##  2 seasonal_naive 1956 Q2    204      NA     NA
    ##  3 seasonal_naive 1956 Q3    208      NA     NA
    ##  4 seasonal_naive 1956 Q4    197      NA     NA
    ##  5 seasonal_naive 1957 Q1    187     189     -2
    ##  6 seasonal_naive 1957 Q2    214     204     10
    ##  7 seasonal_naive 1957 Q3    227     208     19
    ##  8 seasonal_naive 1957 Q4    222     197     25
    ##  9 seasonal_naive 1958 Q1    199     187     12
    ## 10 seasonal_naive 1958 Q2    229     214     15
    ## # ... with 148 more rows
…
El pronóstico:

``` r
bricks_fc <- bricks_model %>% 
  forecast(h = length(bricks$Quarter)-length(bricks_train$Quarter))
bricks_fc
```

    ## # A fable: 40 x 4 [1Q]
    ## # Key:     .model [1]
    ##    .model         Quarter Bricks .distribution
    ##    <chr>            <qtr>  <dbl> <dist>       
    ##  1 seasonal_naive 1995 Q3    497 N(497, 2319) 
    ##  2 seasonal_naive 1995 Q4    476 N(476, 2319) 
    ##  3 seasonal_naive 1996 Q1    430 N(430, 2319) 
    ##  4 seasonal_naive 1996 Q2    457 N(457, 2319) 
    ##  5 seasonal_naive 1996 Q3    497 N(497, 4639) 
    ##  6 seasonal_naive 1996 Q4    476 N(476, 4639) 
    ##  7 seasonal_naive 1997 Q1    430 N(430, 4639) 
    ##  8 seasonal_naive 1997 Q2    457 N(457, 4639) 
    ##  9 seasonal_naive 1997 Q3    497 N(497, 6958) 
    ## 10 seasonal_naive 1997 Q4    476 N(476, 6958) 
    ## # ... with 30 more rows
…
# Ajuste del modelo
lamb_model <- lamb_train %>% 
  model(seasonal_naive = SNAIVE(Count))

# Obtener residuales y valores ajustados
lamb_aug <- lamb_model %>% augment()

lamb_aug
```

    ## # A tsibble: 446 x 5 [1M]
    ## # Key:       .model [1]
    ##    .model             Month  Count .fitted .resid
    ##    <chr>              <mth>  <dbl>   <dbl>  <dbl>
    ##  1 seasonal_naive 1972 jul. 587600      NA     NA
    ##  2 seasonal_naive 1972 ago. 553700      NA     NA
    ##  3 seasonal_naive 1972 sep. 494900      NA     NA
    ##  4 seasonal_naive 1972 oct. 533500      NA     NA
    ##  5 seasonal_naive 1972 nov. 574300      NA     NA
    ##  6 seasonal_naive 1972 dic. 517500      NA     NA
    ##  7 seasonal_naive 1973 ene. 562600      NA     NA
    ##  8 seasonal_naive 1973 feb. 426900      NA     NA
    ##  9 seasonal_naive 1973 mar. 496300      NA     NA
    ## 10 seasonal_naive 1973 abr. 496000      NA     NA
    ## # ... with 436 more rows
…
El pronóstico:

``` r
lamb_fc <- lamb_model %>% 
  forecast(h = length(lamb$Month)-length(lamb_train$Month))
lamb_fc
```

    ## # A fable: 112 x 4 [1M]
    ## # Key:     .model [1]
    ##    .model             Month  Count .distribution     
    ##    <chr>              <mth>  <dbl> <dist>            
    ##  1 seasonal_naive 2009 sep. 381800 N(381800, 3.3e+09)
    ##  2 seasonal_naive 2009 oct. 457400 N(457400, 3.3e+09)
    ##  3 seasonal_naive 2009 nov. 374800 N(374800, 3.3e+09)
    ##  4 seasonal_naive 2009 dic. 382000 N(382000, 3.3e+09)
    ##  5 seasonal_naive 2010 ene. 380900 N(380900, 3.3e+09)
    ##  6 seasonal_naive 2010 feb. 379100 N(379100, 3.3e+09)
    ##  7 seasonal_naive 2010 mar. 407400 N(407400, 3.3e+09)
    ##  8 seasonal_naive 2010 abr. 404100 N(404100, 3.3e+09)
    ##  9 seasonal_naive 2010 may. 376500 N(376500, 3.3e+09)
    ## 10 seasonal_naive 2010 jun. 355200 N(355200, 3.3e+09)
    ## # ... with 102 more rows
…
