…
#


<br><br><br><br>

***

# Examples 

```{r data world_bank_pop}
data("world_bank_pop")
# A tibble: 1,056 x 20
#    country indicator `2000` `2001` `2002` `2003`  `2004`  `2005`   `2006`   `2007`
#    <chr>   <chr>      <dbl>  <dbl>  <dbl>  <dbl>   <dbl>   <dbl>    <dbl>    <dbl>
#  1 ABW     SP.URB.T~ 4.24e4 4.30e4 4.37e4 4.42e4 4.47e+4 4.49e+4  4.49e+4  4.47e+4
#  2 ABW     SP.URB.G~ 1.18e0 1.41e0 1.43e0 1.31e0 9.51e-1 4.91e-1 -1.78e-2 -4.35e-1
#  3 ABW     SP.POP.T~ 9.09e4 9.29e4 9.50e4 9.70e4 9.87e+4 1.00e+5  1.01e+5  1.01e+5
#  4 ABW     SP.POP.G~ 2.06e0 2.23e0 2.23e0 2.11e0 1.76e+0 1.30e+0  7.98e-1  3.84e-1
#  5 AFG     SP.URB.T~ 4.44e6 4.65e6 4.89e6 5.16e6 5.43e+6 5.69e+6  5.93e+6  6.15e+6
#  6 AFG     SP.URB.G~ 3.91e0 4.66e0 5.13e0 5.23e0 5.12e+0 4.77e+0  4.12e+0  3.65e+0
#  7 AFG     SP.POP.T~ 2.01e7 2.10e7 2.20e7 2.31e7 2.41e+7 2.51e+7  2.59e+7  2.66e+7
#  8 AFG     SP.POP.G~ 3.49e0 4.25e0 4.72e0 4.82e0 4.47e+0 3.87e+0  3.23e+0  2.76e+0
#  9 AGO     SP.URB.T~ 8.23e6 8.71e6 9.22e6 9.77e6 1.03e+7 1.09e+7  1.15e+7  1.21e+7
# 10 AGO     SP.URB.G~ 5.44e0 5.59e0 5.70e0 5.76e0 5.75e+0 5.69e+0  4.92e+0  4.89e+0
# ... with 1,046 more rows, and 10 more variables: `2008` <dbl>, `2009` <dbl>,
#   `2010` <dbl>, `2011` <dbl>, `2012` <dbl>, `2013` <dbl>, `2014` <dbl>,
#   `2015` <dbl>, `2016` <dbl>, `2017` <dbl>
```
…
