Modelos de regresión dinámica
…
vic_elec_daily

# A tsibble: 365 x 5 [1D]
   Date       Demand Temperature Holiday Day_Type
   <date>      <dbl>       <dbl> <lgl>   <chr>   
 1 2014-01-01   175.        26   TRUE    Holiday 
 2 2014-01-02   188.        23   FALSE   Weekday 
 3 2014-01-03   189.        22.2 FALSE   Weekday 
 4 2014-01-04   174.        20.3 FALSE   Weekend 
 5 2014-01-05   170.        26.1 FALSE   Weekend 
 6 2014-01-06   195.        19.6 FALSE   Weekday 
 7 2014-01-07   200.        20   FALSE   Weekday 
 8 2014-01-08   205.        27.4 FALSE   Weekday 
 9 2014-01-09   227.        32.4 FALSE   Weekday 
10 2014-01-10   258.        34   FALSE   Weekday 
# ... with 355 more rows
…
vic_elec_daily %>% 
  mutate(
    dia_habil = Day_Type == "Weekday"
  )

# A tsibble: 365 x 6 [1D]
   Date       Demand Temperature Holiday Day_Type dia_habil
   <date>      <dbl>       <dbl> <lgl>   <chr>    <lgl>    
 1 2014-01-01   175.        26   TRUE    Holiday  FALSE    
 2 2014-01-02   188.        23   FALSE   Weekday  TRUE     
 3 2014-01-03   189.        22.2 FALSE   Weekday  TRUE     
 4 2014-01-04   174.        20.3 FALSE   Weekend  FALSE    
 5 2014-01-05   170.        26.1 FALSE   Weekend  FALSE    
 6 2014-01-06   195.        19.6 FALSE   Weekday  TRUE     
 7 2014-01-07   200.        20   FALSE   Weekday  TRUE     
 8 2014-01-08   205.        27.4 FALSE   Weekday  TRUE     
 9 2014-01-09   227.        32.4 FALSE   Weekday  TRUE     
10 2014-01-10   258.        34   FALSE   Weekday  TRUE     
# ... with 355 more rows
…
